Programming & Methods Resources Workshop
…
Let’s explore some aggregate data on U.S. Senate elections in the direct-election era from

library(ggplot2) # Load ggplot2
library(plyr) # Loaad plyr, which provides tools for summarizing data
library(readstata13) # Load readstata13 to read Stata Files
library(dplyr) # Loaad dplyr, which provides tools that I always use, like as_tibble
library(reshape) # Load reshape, which provides for the melt function needed for data manipulation.

load("/Users/carlosalgara/Desktop/carlos_school/PhD_UC Davis/Dissertation Project/Ch2_Electoral_Implications_Approval/Aldrich_McKelvey_Scaling/Aldrich_McKelvey_Scaling_2008_2016_Positions_Results.Rdata") # Load R environment containing various estimations of candidate & citizen ideological ideal points from 2008-2016.

# Let's explore the nature of ideological preferences in the American electorate over time!

print(as_tibble(rescaled_overtime_idealpts_2008_2016))

## # A tibble: 262,896 x 8
##    year_district_id intercept aldmck_weight_par… idealpt selfplace polinfo
##    <chr>                <dbl>              <dbl>   <dbl>     <dbl>   <dbl>
##  1 2008 NY14           -0.653              0.218   0.218         4   1.000
##  2 2008 CA23           -2.18               0.435  -1.31          2   1.000
##  3 2008 WA8            -0.943              0.354   1.18          6   0.977
##  4 2008 MA2            -0.843              0.281   0.562         5   0.987
##  5 2008 IL10           -3.05               0.653  -0.435         4   1.000
##  6 2008 MI15           -1.41               0.326  -1.09          1   1.000
##  7 2008 CA43           -0.957              0.261  -0.696         1   1.000
##  8 2008 NY22           -1.32               0.331  -0.994         1   0.879
##  9 2008 CA7            -1.09               0.326  -0.435         2   1.000
## 10 2008 NC4            -1.09               0.653   2.83          6   1.000
## # ... with 262,886 more rows, and 2 more variables:
## #   idealpts_linear_map_overtime <dbl>, pid7 <chr>
…
# Success! But there might be evidence that the distribution of ideological preferences might be trimodal. That is, clear partisan cleavages with respect to ideological preferences. Let's explore this possibility by first coding partisan preferences

rescaled_overtime_idealpts_2008_2016$pid3 <- ifelse(rescaled_overtime_idealpts_2008_2016$pid7 %in% c("Lean Republican","Not very strong Republican","Strong Republican"),"Republican",ifelse(rescaled_overtime_idealpts_2008_2016$pid7 %in% c("Lean Democrat","Not very strong Democrat","Strong Democrat"),"Democrat",ifelse(rescaled_overtime_idealpts_2008_2016$pid7 %in% c("Independent"),"Independent",NA)))

print(as_tibble(rescaled_overtime_idealpts_2008_2016)) # Let's check it out

## # A tibble: 262,896 x 9
##    year_district_id intercept aldmck_weight_par… idealpt selfplace polinfo
##    <chr>                <dbl>              <dbl>   <dbl>     <dbl>   <dbl>
##  1 2008 NY14           -0.653              0.218   0.218         4   1.000
##  2 2008 CA23           -2.18               0.435  -1.31          2   1.000
##  3 2008 WA8            -0.943              0.354   1.18          6   0.977
##  4 2008 MA2            -0.843              0.281   0.562         5   0.987
##  5 2008 IL10           -3.05               0.653  -0.435         4   1.000
##  6 2008 MI15           -1.41               0.326  -1.09          1   1.000
##  7 2008 CA43           -0.957              0.261  -0.696         1   1.000
##  8 2008 NY22           -1.32               0.331  -0.994         1   0.879
##  9 2008 CA7            -1.09               0.326  -0.435         2   1.000
## 10 2008 NC4            -1.09               0.653   2.83          6   1.000
## # ... with 262,886 more rows, and 3 more variables:
## #   idealpts_linear_map_overtime <dbl>, pid7 <chr>, pid3 <chr>
…
# This is cool, let's do House candidates! First, let's check the data frame.

print(as_tibble(aldmck_congress))

## # A tibble: 1,900 x 6
##    district placement.dem_pty_l… placement.rep_pty_l… placement.dem_hse_l…
##    <chr>                   <dbl>                <dbl>                <dbl>
##  1 AK1                    -0.390                0.816             -0.287  
##  2 AL5                    -0.390                0.816             -0.115  
##  3 AL3                    -0.390                0.816             -0.234  
##  4 AL2                    -0.390                0.816              0.0107 
##  5 AL4                    -0.390                0.816              0.0506 
##  6 AZ1                    -0.390                0.816             -0.00825
##  7 AZ2                    -0.390                0.816              0.0454 
##  8 AZ3                    -0.390                0.816             -0.246  
##  9 AZ4                    -0.390                0.816             -0.132  
## 10 AZ5                    -0.390                0.816             -0.209  
## # ... with 1,890 more rows, and 2 more variables:
## #   placement.rep_hse_libcon_placement <dbl>, year <dbl>
…
